Soja - Grão de Rondônia por Quantidade produzida em toneladas
		
Código	Nome	Valor
1100015	Alta Floresta d`Oeste	2.800
1100379	Alto Alegre dos Parecis	6.102
1100403	Alto Paraíso	15.635
1100346	Alvorada d`Oeste	X
1100023	Ariquemes	9.553
1100452	Buritis	-
1100031	Cabixi	73.522
1100601	Cacaulândia	-
1100049	Cacoal	3.349
1100700	Campo Novo de Rondônia	X
1100809	Candeias do Jamari	12.108
1100908	Castanheiras	X
1100056	Cerejeiras	110.910
1100924	Chupinguaia	75.492
1100064	Colorado do Oeste	4.587
1100072	Corumbiara	160.838
1100080	Costa Marques	-
1100940	Cujubim	24.230
1100098	Espigão d`Oeste	5.460
1101005	Governador Jorge Teixeira	-
1100106	Guajará-Mirim	-
1101104	Itapuã do Oeste	X
1100114	Jaru	-
1100122	Ji-Paraná	-
1100130	Machadinho d`Oeste	13.002
1101203	Ministro Andreazza	-
1101302	Mirante da Serra	-
1101401	Monte Negro	-
1100148	Nova Brasilândia d`Oeste	X
1100338	Nova Mamoré	X
1101435	Nova União	-
1100502	Novo Horizonte do Oeste	X
1100155	Ouro Preto do Oeste	-
1101450	Parecis	X
1100189	Pimenta Bueno	-
1101468	Pimenteiras do Oeste	67.151
1100205	Porto Velho	X
1100254	Presidente Médici	-
1101476	Primavera de Rondônia	-
1100262	Rio Crespo	14.220
1100288	Rolim de Moura	5.720
1100296	Santa Luzia d`Oeste	X
1101500	Seringueiras	9.300
1101484	São Felipe d`Oeste	X
1101492	São Francisco do Guaporé	X
1100320	São Miguel do Guaporé	31.573
1101559	Teixeirópolis	-
1101609	Theobroma	X
1101708	Urupá	-
1101757	Vale do Anari	X
1101807	Vale do Paraíso	-
1100304	Vilhena	106.711
Fonte: IBGE, Censo Agropecuário 2017		
