Soja - Grão do Paraná por Quantidade produzida em toneladas
		
Código	Nome	Valor
4100103	Abatiá	23.747
4100202	Adrianópolis	-
4100301	Agudos do Sul	1.312
4100400	Almirante Tamandaré	456
4100459	Altamira do Paraná	5.638
4100608	Alto Paraná	1.195
4128625	Alto Paraíso	-
4100707	Alto Piquiri	87.556
4100509	Altônia	10.323
4100806	Alvorada do Sul	56.882
4100905	Amaporã	3.437
4101002	Ampére	22.750
4101051	Anahy	18.939
4101101	Andirá	30.342
4101200	Antonina	-
4101309	Antônio Olinto	26.873
4101408	Apucarana	69.706
4101507	Arapongas	61.929
4101606	Arapoti	104.701
4101655	Arapuã	30.785
4101705	Araruna	78.059
4101804	Araucária	29.884
4101853	Ariranha do Ivaí	33.529
4101903	Assaí	61.164
4102000	Assis Chateaubriand	234.718
4102109	Astorga	79.596
4102208	Atalaia	20.157
4102307	Balsa Nova	19.937
4102406	Bandeirantes	32.876
4102505	Barbosa Ferraz	44.311
4102703	Barra do Jacaré	10.929
4102604	Barracão	6.271
4102752	Bela Vista da Caroba	11.579
4102802	Bela Vista do Paraíso	52.708
4102901	Bituruna	5.899
4103008	Boa Esperança	97.532
4103024	Boa Esperança do Iguaçu	11.753
4103040	Boa Ventura de São Roque	65.384
4103057	Boa Vista da Aparecida	14.126
4103107	Bocaiúva do Sul	X
4103156	Bom Jesus do Sul	4.746
4103206	Bom Sucesso	21.750
4103222	Bom Sucesso do Sul	36.800
4103305	Borrazópolis	59.501
4103354	Braganey	64.819
4103370	Brasilândia do Sul	65.112
4103404	Cafeara	7.460
4103453	Cafelândia	76.190
4103479	Cafezal do Sul	14.524
4103503	Califórnia	17.051
4103602	Cambará	38.152
4103800	Cambira	21.704
4103701	Cambé	106.610
4104006	Campina Grande do Sul	X
4103909	Campina da Lagoa	123.579
4103958	Campina do Simão	33.266
4104055	Campo Bonito	54.761
4104204	Campo Largo	10.287
4104253	Campo Magro	3.036
4104303	Campo Mourão	163.035
4104105	Campo do Tenente	20.412
4104428	Candói	104.756
4104451	Cantagalo	46.662
4104501	Capanema	43.405
4104600	Capitão Leônidas Marques	25.508
4104659	Carambeí	58.900
4104709	Carlópolis	2.743
4104808	Cascavel	327.310
4104907	Castro	113.406
4105003	Catanduvas	52.044
4105102	Centenário do Sul	26.568
4105201	Cerro Azul	3.000
4105409	Chopinzinho	80.235
4105508	Cianorte	29.923
4105607	Cidade Gaúcha	3.133
4105706	Clevelândia	102.260
4105805	Colombo	-
4105904	Colorado	3.019
4106001	Congonhinhas	22.564
4106100	Conselheiro Mairinck	13.272
4106209	Contenda	25.756
4106308	Corbélia	124.099
4106407	Cornélio Procópio	82.138
4106456	Coronel Domingos Soares	55.356
4106506	Coronel Vivida	86.346
4106555	Corumbataí do Sul	10.503
4106803	Cruz Machado	4.883
4106571	Cruzeiro do Iguaçu	10.384
4106605	Cruzeiro do Oeste	13.006
4106704	Cruzeiro do Sul	9.420
4106852	Cruzmaltina	41.135
4106902	Curitiba	360
4107009	Curiúva	16.132
4104402	Cândido de Abreu	51.031
4105300	Céu Azul	63.397
4107157	Diamante d`Oeste	7.909
4107108	Diamante do Norte	X
4107124	Diamante do Sul	3.240
4107207	Dois Vizinhos	38.550
4107256	Douradina	X
4107306	Doutor Camargo	24.695
4128633	Doutor Ulysses	1.851
4107504	Engenheiro Beltrão	86.685
4107538	Entre Rios do Oeste	17.517
4107405	Enéas Marques	7.394
4107520	Esperança Nova	-
4107546	Espigão Alto do Iguaçu	16.179
4107553	Farol	73.044
4107603	Faxinal	60.175
4107652	Fazenda Rio Grande	972
4107736	Fernandes Pinheiro	47.596
4107751	Figueira	3.420
4107850	Flor da Serra do Sul	16.605
4107801	Floraí	34.994
4107900	Floresta	34.925
4108007	Florestópolis	19.638
4108106	Flórida	9.303
4108205	Formosa do Oeste	59.851
4108304	Foz do Iguaçu	31.148
4108452	Foz do Jordão	36.908
4108320	Francisco Alves	60.062
4108403	Francisco Beltrão	49.694
4107702	Fênix	46.320
4108502	General Carneiro	6.078
4108551	Godoy Moreira	6.348
4108601	Goioerê	110.729
4108650	Goioxim	39.236
4108700	Grandes Rios	8.399
4108908	Guairaçá	-
4108957	Guamiranga	12.174
4109005	Guapirama	11.008
4109104	Guaporema	1.930
4109203	Guaraci	7.715
4109302	Guaraniaçu	43.653
4109401	Guarapuava	201.782
4109500	Guaraqueçaba	-
4109609	Guaratuba	-
4108809	Guaíra	84.188
4109658	Honório Serpa	60.484
4109708	Ibaiti	31.594
4109757	Ibema	21.400
4109807	Ibiporã	45.182
4109906	Icaraíma	X
4110003	Iguaraçu	27.837
4110052	Iguatu	11.834
4110078	Imbaú	7.949
4110102	Imbituva	63.429
4110300	Inajá	X
4110409	Indianópolis	2.759
4110201	Inácio Martins	4.720
4110508	Ipiranga	71.343
4110607	Iporã	66.766
4110656	Iracema do Oeste	20.818
4110706	Irati	89.457
4110805	Iretama	40.947
4110904	Itaguajé	1.742
4110953	Itaipulândia	30.389
4111001	Itambaracá	40.843
4111100	Itambé	46.450
4111209	Itapejara d`Oeste	37.540
4111258	Itaperuçu	243
4111308	Itaúna do Sul	478
4111506	Ivaiporã	64.774
4111605	Ivatuba	25.170
4111555	Ivaté	1.654
4111407	Ivaí	35.557
4111704	Jaboti	2.973
4111803	Jacarezinho	10.839
4111902	Jaguapitã	29.657
4112009	Jaguariaíva	63.223
4112108	Jandaia do Sul	12.470
4112207	Janiópolis	67.572
4112306	Japira	15.057
4112405	Japurá	25.207
4112504	Jardim Alegre	43.987
4112603	Jardim Olinda	6.007
4112702	Jataizinho	15.403
4112751	Jesuítas	47.229
4112801	Joaquim Távora	8.193
4112900	Jundiaí do Sul	8.423
4112959	Juranda	101.251
4113007	Jussara	30.512
4113106	Kaloré	35.637
4113205	Lapa	131.803
4113254	Laranjal	3.586
4113304	Laranjeiras do Sul	50.316
4113403	Leópolis	41.679
4113429	Lidianópolis	15.044
4113452	Lindoeste	21.672
4113502	Loanda	X
4113601	Lobato	21.361
4113700	Londrina	200.333
4113734	Luiziana	173.420
4113759	Lunardelli	20.062
4113809	Lupionópolis	15.251
4113908	Mallet	34.560
4114005	Mamborê	214.116
4114203	Mandaguari	16.212
4114104	Mandaguaçu	33.598
4114302	Mandirituba	1.723
4114351	Manfrinópolis	1.228
4114401	Mangueirinha	119.569
4114500	Manoel Ribas	59.699
4114609	Marechal Cândido Rondon	98.127
4114708	Maria Helena	X
4114807	Marialva	76.108
4115002	Marilena	1.328
4115101	Mariluz	59.375
4114906	Marilândia do Sul	66.040
4115200	Maringá	72.204
4115358	Maripá	75.918
4115309	Mariópolis	39.958
4115408	Marmeleiro	40.751
4115457	Marquinho	11.808
4115507	Marumbi	13.057
4115606	Matelândia	46.382
4115705	Matinhos	-
4115739	Mato Rico	24.860
4115754	Mauá da Serra	4.550
4115804	Medianeira	46.319
4115853	Mercedes	28.490
4115903	Mirador	2.755
4116000	Miraselva	233
4116059	Missal	43.962
4116109	Moreira Sales	26.746
4116208	Morretes	-
4116307	Munhoz de Melo	15.379
4116406	Nossa Senhora das Graças	3.815
4116505	Nova Aliança do Ivaí	X
4116604	Nova América da Colina	9.143
4116703	Nova Aurora	104.240
4116802	Nova Cantu	74.406
4116901	Nova Esperança	10.757
4116950	Nova Esperança do Sudoeste	2.971
4117008	Nova Fátima	29.952
4117057	Nova Laranjeiras	24.529
4117107	Nova Londrina	X
4117206	Nova Olímpia	X
4117255	Nova Prata do Iguaçu	34.665
4117214	Nova Santa Bárbara	9.229
4117222	Nova Santa Rosa	39.192
4117271	Nova Tebas	28.180
4117297	Novo Itacolomi	6.101
4117305	Ortigueira	67.132
4117404	Ourizona	42.513
4117453	Ouro Verde do Oeste	54.017
4117503	Paiçandu	25.509
4117602	Palmas	101.719
4117701	Palmeira	174.680
4117800	Palmital	13.125
4117909	Palotina	184.545
4118105	Paranacity	3.987
4118204	Paranaguá	-
4118303	Paranapoema	5.523
4118402	Paranavaí	721
4118006	Paraíso do Norte	9.031
4118451	Pato Bragado	13.900
4118501	Pato Branco	74.289
4118600	Paula Freitas	37.789
4118709	Paulo Frontin	38.247
4118808	Peabiru	95.452
4118857	Perobal	37.633
4119152	Pinhais	X
4119251	Pinhal de São Bento	5.157
4119202	Pinhalão	8.374
4119301	Pinhão	105.479
4119509	Piraquara	676
4119400	Piraí do Sul	112.638
4119608	Pitanga	151.974
4119657	Pitangueiras	35.035
4119103	Piên	6.882
4119707	Planaltina do Paraná	746
4119806	Planalto	32.727
4119905	Ponta Grossa	185.599
4119954	Pontal do Paraná	-
4120002	Porecatu	4.708
4120101	Porto Amazonas	14.554
4120150	Porto Barreiro	24.797
4120200	Porto Rico	-
4120309	Porto Vitória	1.101
4120333	Prado Ferreira	28.306
4120358	Pranchita	39.014
4120408	Presidente Castelo Branco	5.866
4120507	Primeiro de Maio	60.958
4120606	Prudentópolis	99.422
4118907	Pérola	-
4119004	Pérola d`Oeste	28.114
4120655	Quarto Centenário	77.188
4120705	Quatiguá	X
4120804	Quatro Barras	X
4120853	Quatro Pontes	23.209
4120903	Quedas do Iguaçu	37.235
4121000	Querência do Norte	24.597
4121109	Quinta do Sol	66.056
4121208	Quitandinha	13.809
4121257	Ramilândia	9.625
4121307	Rancho Alegre	30.820
4121356	Rancho Alegre d`Oeste	64.450
4121406	Realeza	46.128
4121505	Rebouças	50.854
4121604	Renascença	63.534
4121703	Reserva	35.553
4121752	Reserva do Iguaçu	29.382
4121802	Ribeirão Claro	1.422
4121901	Ribeirão do Pinhal	24.480
4122008	Rio Azul	32.873
4122107	Rio Bom	13.284
4122156	Rio Bonito do Iguaçu	31.924
4122172	Rio Branco do Ivaí	34.276
4122206	Rio Branco do Sul	476
4122305	Rio Negro	18.555
4122404	Rolândia	90.615
4122503	Roncador	97.976
4122602	Rondon	628
4122651	Rosário do Ivaí	6.834
4122701	Sabáudia	32.813
4122800	Salgado Filho	2.482
4122909	Salto do Itararé	3.016
4123006	Salto do Lontra	28.393
4123105	Santa Amélia	9.416
4123204	Santa Cecília do Pavão	15.256
4123303	Santa Cruz de Monte Castelo	10.085
4123402	Santa Fé	22.493
4123501	Santa Helena	72.347
4123600	Santa Inês	1.213
4123709	Santa Isabel do Ivaí	6.415
4123808	Santa Izabel do Oeste	38.993
4123824	Santa Lúcia	17.274
4123857	Santa Maria do Oeste	52.584
4123907	Santa Mariana	68.487
4123956	Santa Mônica	3.225
4124020	Santa Tereza do Oeste	58.880
4124053	Santa Terezinha de Itaipu	51.603
4124004	Santana do Itararé	30.205
4124103	Santo Antônio da Platina	23.944
4124202	Santo Antônio do Caiuá	X
4124301	Santo Antônio do Paraíso	27.283
4124400	Santo Antônio do Sudoeste	29.242
4124509	Santo Inácio	6.797
4126207	Sapopema	9.011
4126256	Sarandi	19.189
4126272	Saudade do Iguaçu	7.938
4126306	Sengés	35.263
4126355	Serranópolis do Iguaçu	41.346
4126405	Sertaneja	91.642
4126504	Sertanópolis	90.430
4126603	Siqueira Campos	1.055
4126652	Sulina	12.107
4124608	São Carlos do Ivaí	17.206
4124707	São Jerônimo da Serra	45.520
4125209	São Jorge d`Oeste	27.447
4125308	São Jorge do Ivaí	92.448
4125357	São Jorge do Patrocínio	323
4125407	São José da Boa Vista	44.637
4125456	São José das Palmeiras	7.542
4125506	São José dos Pinhais	6.724
4124806	São João	57.006
4124905	São João do Caiuá	-
4125001	São João do Ivaí	62.312
4125100	São João do Triunfo	18.744
4125555	São Manoel do Paraná	2.862
4125605	São Mateus do Sul	77.144
4125704	São Miguel do Iguaçu	149.411
4125753	São Pedro do Iguaçu	44.194
4125803	São Pedro do Ivaí	33.904
4125902	São Pedro do Paraná	X
4126009	São Sebastião da Amoreira	40.732
4126108	São Tomé	5.139
4126678	Tamarana	36.353
4126702	Tamboara	1.338
4126801	Tapejara	X
4126900	Tapira	2.746
4127007	Teixeira Soares	102.252
4127106	Telêmaco Borba	1.246
4127205	Terra Boa	30.294
4127304	Terra Rica	817
4127403	Terra Roxa	175.821
4127502	Tibagi	275.092
4127601	Tijucas do Sul	5.142
4127700	Toledo	265.954
4127809	Tomazina	20.688
4127858	Três Barras do Paraná	42.387
4127882	Tunas do Paraná	-
4127908	Tuneiras do Oeste	32.606
4127957	Tupãssi	87.762
4127965	Turvo	29.122
4128005	Ubiratã	171.232
4128104	Umuarama	4.742
4128302	Uniflor	8.096
4128203	União da Vitória	6.419
4128401	Uraí	36.354
4128534	Ventania	49.191
4128559	Vera Cruz do Oeste	62.045
4128609	Verê	45.333
4128658	Virmond	22.910
4128708	Vitorino	43.457
4128500	Wenceslau Braz	49.286
4128807	Xambrê	1.837
4101150	Ângulo	17.124
Fonte: IBGE, Censo Agropecuário 2017		
