Soja - Grão de Goiás por Quantidade produzida em toneladas
		
Código	Nome	Valor
5200050	Abadia de Goiás	X
5200100	Abadiânia	22.323
5200134	Acreúna	105.412
5200159	Adelândia	X
5200308	Alexânia	13.543
5200506	Aloândia	8.531
5200555	Alto Horizonte	X
5200605	Alto Paraíso de Goiás	27.698
5200803	Alvorada do Norte	X
5200829	Amaralina	13.038
5200852	Americano do Brasil	X
5200902	Amorinópolis	17.683
5201207	Anhanguera	-
5201306	Anicuns	6.893
5201108	Anápolis	6.579
5201405	Aparecida de Goiânia	-
5201454	Aparecida do Rio Doce	2.357
5201504	Aporé	15.591
5201702	Aragarças	-
5201801	Aragoiânia	X
5202155	Araguapaz	X
5201603	Araçu	2.263
5202353	Arenópolis	23.213
5202502	Aruanã	7.182
5202601	Aurilândia	-
5202809	Avelinópolis	X
5203104	Baliza	17.751
5203203	Barro Alto	6.511
5203302	Bela Vista de Goiás	44.093
5203401	Bom Jardim de Goiás	13.483
5203500	Bom Jesus de Goiás	198.576
5203559	Bonfinópolis	X
5203575	Bonópolis	29.441
5203609	Brazabrantes	X
5203807	Britânia	2.424
5203906	Buriti Alegre	38.453
5203939	Buriti de Goiás	-
5203962	Buritinópolis	-
5204003	Cabeceiras	95.797
5204102	Cachoeira Alta	X
5204250	Cachoeira Dourada	19.125
5204201	Cachoeira de Goiás	-
5204409	Caiapônia	316.440
5204508	Caldas Novas	80.292
5204557	Caldazinha	-
5204607	Campestre de Goiás	2.970
5204656	Campinaçu	X
5204706	Campinorte	29.405
5204805	Campo Alegre de Goiás	232.944
5204854	Campo Limpo de Goiás	-
5204904	Campos Belos	-
5204953	Campos Verdes	-
5205000	Carmo do Rio Verde	X
5205059	Castelândia	7.813
5205109	Catalão	324.871
5205208	Caturaí	713
5205307	Cavalcante	X
5204300	Caçu	X
5205406	Ceres	X
5205455	Cezarina	13.305
5205471	Chapadão do Céu	296.843
5205497	Cidade Ocidental	4.341
5205513	Cocalzinho de Goiás	31.988
5205521	Colinas do Sul	-
5205901	Corumbaíba	22.001
5205802	Corumbá de Goiás	25.777
5206206	Cristalina	520.940
5206305	Cristianópolis	10.071
5206404	Crixás	-
5206503	Cromínia	X
5206602	Cumari	4.173
5205703	Córrego do Ouro	-
5206701	Damianópolis	-
5206800	Damolândia	-
5206909	Davinópolis	4.760
5207105	Diorama	6.151
5208301	Divinópolis de Goiás	-
5207253	Doverlândia	55.128
5207352	Edealina	48.974
5207402	Edéia	109.114
5207501	Estrela do Norte	4.512
5207535	Faina	-
5207600	Fazenda Nova	-
5207808	Firminópolis	13.351
5207907	Flores de Goiás	13.882
5208004	Formosa	40.431
5208103	Formoso	-
5208152	Gameleira de Goiás	97.184
5208509	Goiandira	7.866
5208806	Goianira	7.198
5208400	Goianápolis	7.158
5208608	Goianésia	5.022
5209101	Goiatuba	279.749
5208905	Goiás	6.778
5208707	Goiânia	1.003
5209150	Gouvelândia	3.686
5209200	Guapó	4.034
5209408	Guarani de Goiás	X
5209291	Guaraíta	-
5209457	Guarinos	-
5209606	Heitoraí	X
5209804	Hidrolina	11.954
5209705	Hidrolândia	4.341
5209903	Iaciara	X
5209937	Inaciolândia	33.390
5209952	Indiara	48.056
5210000	Inhumas	3.265
5210109	Ipameri	248.643
5210158	Ipiranga de Goiás	-
5210208	Iporá	8.411
5210307	Israelândia	2.275
5210406	Itaberaí	42.050
5210562	Itaguari	X
5210604	Itaguaru	X
5210802	Itajá	-
5210901	Itapaci	2.702
5211008	Itapirapuã	X
5211206	Itapuranga	2.323
5211305	Itarumã	X
5211404	Itauçu	2.189
5211503	Itumbiara	114.570
5211602	Ivolândia	2.341
5211701	Jandaia	21.625
5211800	Jaraguá	9.196
5211909	Jataí	755.318
5212006	Jaupaci	X
5212055	Jesúpolis	-
5212105	Joviânia	65.981
5212204	Jussara	27.155
5212253	Lagoa Santa	-
5212303	Leopoldo de Bulhões	27.489
5212501	Luziânia	124.363
5212600	Mairipotaba	9.420
5212709	Mambaí	X
5212808	Mara Rosa	4.009
5212907	Marzagão	4.875
5212956	Matrinchã	9.474
5213004	Maurilândia	39.139
5213053	Mimoso de Goiás	41.239
5213087	Minaçu	X
5213103	Mineiros	300.201
5213400	Moiporá	X
5213509	Monte Alegre de Goiás	X
5213707	Montes Claros de Goiás	84.652
5213756	Montividiu	447.587
5213772	Montividiu do Norte	X
5213806	Morrinhos	108.211
5213855	Morro Agudo de Goiás	-
5213905	Mossâmedes	X
5214002	Mozarlândia	X
5214051	Mundo Novo	X
5214101	Mutunópolis	2.820
5214408	Nazário	5.960
5214507	Nerópolis	X
5214606	Niquelândia	127.966
5214705	Nova América	-
5214804	Nova Aurora	X
5214838	Nova Crixás	35.958
5214861	Nova Glória	2.727
5214879	Nova Iguaçu de Goiás	X
5214903	Nova Roma	-
5215009	Nova Veneza	-
5215207	Novo Brasil	-
5215231	Novo Gama	X
5215256	Novo Planalto	X
5215306	Orizona	93.302
5215405	Ouro Verde de Goiás	-
5215504	Ouvidor	4.011
5215603	Padre Bernardo	98.902
5215652	Palestina de Goiás	8.007
5215702	Palmeiras de Goiás	97.264
5215801	Palmelo	1.520
5215900	Palminópolis	15.363
5216007	Panamá	9.607
5216304	Paranaiguara	3.456
5216403	Paraúna	389.995
5216452	Perolândia	110.573
5216809	Petrolina de Goiás	1.710
5216908	Pilar de Goiás	-
5217104	Piracanjuba	190.936
5217203	Piranhas	48.415
5217302	Pirenópolis	13.223
5217401	Pires do Rio	17.716
5217609	Planaltina	48.007
5217708	Pontalina	98.151
5218003	Porangatu	50.345
5218052	Porteirão	45.361
5218102	Portelândia	X
5218300	Posse	X
5218391	Professor Jamil	1.602
5218508	Quirinópolis	52.482
5218607	Rialma	X
5218706	Rianápolis	X
5218789	Rio Quente	686
5218805	Rio Verde	1.168.127
5218904	Rubiataba	-
5219001	Sanclerlândia	X
5219100	Santa Bárbara de Goiás	4.301
5219209	Santa Cruz de Goiás	52.267
5219258	Santa Fé de Goiás	8.151
5219308	Santa Helena de Goiás	118.743
5219357	Santa Isabel	1.787
5219407	Santa Rita do Araguaia	13.211
5219456	Santa Rita do Novo Destino	22.749
5219506	Santa Rosa de Goiás	1.786
5219605	Santa Tereza de Goiás	7.499
5219704	Santa Terezinha de Goiás	X
5219712	Santo Antônio da Barra	29.840
5219738	Santo Antônio de Goiás	-
5219753	Santo Antônio do Descoberto	5.196
5220454	Senador Canedo	X
5220504	Serranópolis	91.891
5220603	Silvânia	247.707
5220686	Simolândia	X
5219803	São Domingos	X
5219902	São Francisco de Goiás	1.530
5220009	São João d`Aliança	73.677
5220058	São João da Paraúna	27.346
5220108	São Luís de Montes Belos	X
5220157	São Luíz do Norte	8.349
5220207	São Miguel do Araguaia	7.436
5220264	São Miguel do Passa Quatro	37.744
5220280	São Patrício	-
5220405	São Simão	-
5220702	Sítio d`Abadia	11.260
5221007	Taquaral de Goiás	X
5221080	Teresina de Goiás	-
5221197	Terezópolis de Goiás	2.207
5221403	Trindade	9.422
5221452	Trombas	5.122
5221304	Três Ranchos	2.756
5221551	Turvelândia	69.680
5221502	Turvânia	20.350
5221577	Uirapuru	-
5221700	Uruana	2.988
5221601	Uruaçu	66.305
5221809	Urutaí	11.608
5221858	Valparaíso de Goiás	X
5221908	Varjão	1.487
5222005	Vianópolis	124.298
5222054	Vicentinópolis	67.627
5222203	Vila Boa	-
5222302	Vila Propício	55.855
5200175	Água Fria de Goiás	129.289
5200209	Água Limpa	X
5200258	Águas Lindas de Goiás	X
Fonte: IBGE, Censo Agropecuário 2017		
